digraph "SpookyV2.h"
{
  edge [fontname="Helvetica",fontsize="10",labelfontname="Helvetica",labelfontsize="10"];
  node [fontname="Helvetica",fontsize="10",shape=record];
  Node4 [label="SpookyV2.h",height=0.2,width=0.4,color="black", fillcolor="grey75", style="filled", fontcolor="black"];
  Node4 -> Node5 [dir="back",color="midnightblue",fontsize="10",style="solid"];
  Node5 [label="CountMin.h",height=0.2,width=0.4,color="black", fillcolor="white", style="filled",URL="$_count_min_8h.html"];
  Node5 -> Node6 [dir="back",color="midnightblue",fontsize="10",style="solid"];
  Node6 [label="CountMin.cpp",height=0.2,width=0.4,color="black", fillcolor="white", style="filled",URL="$_count_min_8cpp.html"];
  Node5 -> Node7 [dir="back",color="midnightblue",fontsize="10",style="solid"];
  Node7 [label="Source.cpp",height=0.2,width=0.4,color="black", fillcolor="white", style="filled",URL="$_source_8cpp.html"];
  Node4 -> Node8 [dir="back",color="midnightblue",fontsize="10",style="solid"];
  Node8 [label="HyperLogLog.h",height=0.2,width=0.4,color="black", fillcolor="white", style="filled",URL="$_hyper_log_log_8h.html"];
  Node8 -> Node9 [dir="back",color="midnightblue",fontsize="10",style="solid"];
  Node9 [label="HyperLogLog.cpp",height=0.2,width=0.4,color="black", fillcolor="white", style="filled",URL="$_hyper_log_log_8cpp.html"];
  Node8 -> Node7 [dir="back",color="midnightblue",fontsize="10",style="solid"];
  Node4 -> Node9 [dir="back",color="midnightblue",fontsize="10",style="solid"];
  Node4 -> Node10 [dir="back",color="midnightblue",fontsize="10",style="solid"];
  Node10 [label="SpookyV2.cpp",height=0.2,width=0.4,color="black", fillcolor="white", style="filled",URL="$_spooky_v2_8cpp.html"];
}
