digraph "tabHash.h"
{
  edge [fontname="Helvetica",fontsize="10",labelfontname="Helvetica",labelfontsize="10"];
  node [fontname="Helvetica",fontsize="10",shape=record];
  Node6 [label="tabHash.h",height=0.2,width=0.4,color="black", fillcolor="grey75", style="filled", fontcolor="black"];
  Node6 -> Node7 [dir="back",color="midnightblue",fontsize="10",style="solid"];
  Node7 [label="HyperLogLog.h",height=0.2,width=0.4,color="black", fillcolor="white", style="filled",URL="$_hyper_log_log_8h.html"];
  Node7 -> Node8 [dir="back",color="midnightblue",fontsize="10",style="solid"];
  Node8 [label="HyperLogLog.cpp",height=0.2,width=0.4,color="black", fillcolor="white", style="filled",URL="$_hyper_log_log_8cpp.html"];
  Node7 -> Node9 [dir="back",color="midnightblue",fontsize="10",style="solid"];
  Node9 [label="Source.cpp",height=0.2,width=0.4,color="black", fillcolor="white", style="filled",URL="$_source_8cpp.html"];
  Node6 -> Node8 [dir="back",color="midnightblue",fontsize="10",style="solid"];
}
